{
    "description": "Launch applications with Arabic Lang.",
    "uuid": "arabiclangrun@yucefsourani.github.com",
    "url": "https://github.com/yucefsourani/arabiclangrun",
    "shell-version": ["3.14", "3.16", "3.18", "3.20", "3.22", "3.24", "3.26","3.28"],
    "name": "ArabicLangRun",
    "version": 1
}
